<svg width="31" height="20" viewBox="0 0 31 20" fill="none" xmlns="http://www.w3.org/2000/svg">
<path d="M5.93259 0V6.25888H9.30331C9.30331 8.75211 9.30331 11.2476 9.30331 13.7411H5.93259V20H3.37073V13.7411H0C0 11.2476 0 8.75211 0 6.25888H3.37073V0H5.93259ZM31 6.25888C31 8.75211 31 11.2476 31 13.7411H27.6293V20H25.0688V13.7411H21.6981C21.6981 11.2476 21.6981 8.75211 21.6981 6.25888H25.0688V0H27.6293V6.25888H31ZM28.4395 8.03089H24.2585V11.9691H28.4395V8.03089ZM6.74191 8.03089H2.5614V11.9691H6.74191V8.03089ZM16.7805 0V20H14.22V0H16.7805Z" fill="#D62121"/>
</svg>
